{
	"pattrstorage" : 	{
		"name" : "chan-voc",
		"slots" : 		{
			"1" : 			{
				"id" : 1,
				"name" : "ciao",
				"data" : 				{
					"voicemap" : [ 1, 2, 3, 4, 5, 6, 7, 8, 9, 10, 11, 12, 13, 14, 15, 16, 17, 18, 19, 20, 21, 22, 23, 24, 25, 26, 27, 28, 29, 30, 31, 32, 33, 34, 35, 36, 37, 38, 39, 40, 41, 42, 43, 44, 45, 46, 47, 48 ],
					"follow" : [ 500 ],
					"src" : [ 2 ],
					"noise-th" : [ 0.0 ],
					"noise-amp" : [ 0.0 ],
					"pulse-amp" : [ 0.0 ]
				}

			}
,
			"2" : 			{
				"id" : 2,
				"name" : "hello",
				"data" : 				{
					"voicemap" : [ 48, 47, 46, 45, 44, 43, 42, 41, 40, 39, 38, 37, 36, 35, 34, 33, 32, 31, 30, 29, 28, 27, 26, 25, 24, 23, 22, 21, 20, 19, 18, 17, 16, 15, 14, 13, 12, 11, 10, 9, 8, 7, 6, 5, 4, 3, 2, 1 ],
					"follow" : [ 2000 ],
					"src" : [ 2 ],
					"noise-th" : [ 0.21 ],
					"noise-amp" : [ 0.13 ],
					"pulse-amp" : [ 0.018 ]
				}

			}
,
			"4" : 			{
				"id" : 4,
				"name" : "soffiato",
				"data" : 				{
					"voicemap" : [ 1, 2, 3, 4, 5, 6, 7, 8, 9, 10, 11, 12, 13, 14, 15, 16, 17, 18, 19, 20, 21, 22, 23, 24, 25, 26, 27, 28, 29, 30, 31, 32, 33, 34, 35, 36, 37, 38, 39, 40, 41, 42, 43, 44, 45, 46, 47, 48 ],
					"follow" : [ 500 ],
					"src" : [ 1 ],
					"noise-th" : [ 0.0 ],
					"noise-amp" : [ 0.0 ],
					"pulse-amp" : [ 0.0 ]
				}

			}
,
			"5" : 			{
				"id" : 5,
				"name" : "Inverse",
				"data" : 				{
					"voicemap" : [ 48, 47, 46, 45, 44, 43, 42, 41, 40, 39, 38, 37, 36, 35, 34, 33, 32, 31, 30, 29, 28, 27, 26, 25, 24, 23, 22, 21, 20, 19, 18, 17, 16, 15, 14, 13, 12, 11, 10, 9, 8, 7, 6, 5, 4, 3, 2, 1 ],
					"follow" : [ 2000 ],
					"src" : [ 1 ],
					"noise-th" : [ 0.21 ],
					"noise-amp" : [ 0.13 ],
					"pulse-amp" : [ 0.018 ]
				}

			}
,
			"10" : 			{
				"id" : 10,
				"name" : "start-end-ovat",
				"data" : 				{
					"voicemap" : [ 1, 2, 2, 3, 3, 4, 5, 6, 7, 8, 9, 9, 10, 11, 12, 13, 14, 15, 16, 17, 19, 21, 22, 24, 25, 26, 26, 27, 27, 27, 27, 27, 27, 27, 27, 27, 27, 27, 27, 27, 26, 26, 25, 25, 25, 24, 23, 22 ],
					"follow" : [ 2000 ],
					"src" : [ 1 ],
					"noise-th" : [ 1.0 ],
					"noise-amp" : [ 0.33 ],
					"pulse-amp" : [ 0.403 ]
				}

			}
,
			"11" : 			{
				"id" : 11,
				"name" : "step_1",
				"data" : 				{
					"voicemap" : [ 10, 10, 8, 10, 8, 10, 10, 10, 11, 16, 17, 13, 18, 18, 20, 19, 18, 18, 17, 17, 17, 18, 20, 21, 24, 26, 26, 27, 27, 27, 27, 27, 27, 28, 30, 32, 33, 34, 34, 34, 34, 34, 34, 35, 35, 37, 38, 39 ],
					"follow" : [ 1000 ],
					"src" : [ 1 ],
					"noise-th" : [ 1.0 ],
					"noise-amp" : [ 0.63 ],
					"pulse-amp" : [ 0.55 ]
				}

			}
,
			"12" : 			{
				"id" : 12,
				"name" : "step_2",
				"data" : 				{
					"voicemap" : [ 3, 33, 34, 35, 36, 36, 37, 37, 37, 37, 37, 36, 35, 33, 32, 27, 24, 22, 20, 19, 18, 17, 17, 17, 16, 16, 16, 15, 15, 15, 15, 15, 15, 15, 14, 14, 13, 13, 12, 11, 11, 10, 10, 10, 10, 11, 11, 11 ],
					"follow" : [ 250 ],
					"src" : [ 1 ],
					"noise-th" : [ 0.397 ],
					"noise-amp" : [ 1.74 ],
					"pulse-amp" : [ 3.17 ]
				}

			}
,
			"13" : 			{
				"id" : 13,
				"name" : "step_3",
				"data" : 				{
					"voicemap" : [ 46, 47, 46, 45, 44, 43, 43, 42, 41, 40, 39, 38, 38, 37, 36, 36, 35, 34, 32, 31, 31, 30, 29, 28, 28, 27, 27, 26, 24, 23, 23, 22, 21, 20, 20, 18, 17, 16, 15, 13, 12, 9, 8, 7, 6, 5, 5, 2 ],
					"follow" : [ 120 ],
					"src" : [ 1 ],
					"noise-th" : [ 0.397 ],
					"noise-amp" : [ 1.74 ],
					"pulse-amp" : [ 3.17 ]
				}

			}
,
			"14" : 			{
				"id" : 14,
				"name" : "step_5",
				"data" : 				{
					"voicemap" : [ 19, 20, 22, 25, 27, 29, 31, 32, 32, 33, 33, 34, 34, 34, 34, 33, 33, 32, 32, 31, 31, 30, 28, 27, 25, 24, 23, 22, 21, 19, 18, 17, 16, 16, 14, 13, 13, 13, 13, 13, 14, 15, 16, 17, 18, 20, 22, 27 ],
					"follow" : [ 75 ],
					"src" : [ 1 ],
					"noise-th" : [ 0.397 ],
					"noise-amp" : [ 1.74 ],
					"pulse-amp" : [ 3.17 ]
				}

			}
,
			"15" : 			{
				"id" : 15,
				"name" : "step_5",
				"data" : 				{
					"voicemap" : [ 1, 2, 3, 3, 5, 6, 6, 7, 8, 10, 12, 12, 14, 15, 15, 17, 18, 19, 20, 22, 22, 22, 24, 24, 25, 26, 27, 29, 29, 30, 31, 32, 33, 34, 35, 37, 37, 38, 38, 39, 40, 41, 42, 43, 44, 46, 47, 48 ],
					"follow" : [ 45 ],
					"src" : [ 1 ],
					"noise-th" : [ 0.14 ],
					"noise-amp" : [ 0.73 ],
					"pulse-amp" : [ 0.54 ]
				}

			}

		}

	}

}
